{
    "oneOf": [
        {
            "properties": {
                "libvirt": {
                    "type": "string"
                }
            },
            "required": [
                "libvirt"
            ],
            "title": "macvtap with libvirt",
            "type": "object"
        },
        {
            "properties": {
                "hostiface": {
                    "type": "string"
                }
            },
            "required": [
                "hostiface"
            ],
            "title": "macvtap with no libvirt",
            "type": "object"
        },
        {
            "properties": {
                "ccwgroup": {
                    "pattern": "^([a-f0-9]\\.){2}[a-f0-9]{4},([a-f0-9]\\.){2}[a-f0-9]{4},([a-f0-9]\\.){2}[a-f0-9]{4}$",
                    "type": "string"
                },
                "layer2": {
                    "type": "boolean"
                },
                "portname": {
                    "type": "string"
                },
                "portno": {
                    "type": "string",
                    "enum": [
                        "0",
                        "1"
                    ]
                }
            },
            "required": [
                "ccwgroup"
            ],
            "title": "osa card",
            "type": "object"
        },
        {
            "properties": {
                "fid": {
                    "pattern": "^[a-f0-9]+$",
                    "type": "string"
                }
            },
            "required": [
                "fid"
            ],
            "title": "roce card",
            "type": "object"
        }
    ],
    "type": "object"
}
